…
``` r
top10_sentiment.M <- Speech.M.tk.1 %>%
  filter(sentiment!="neu") %>%
  count(sentiment, token) %>%
  group_by(sentiment) %>%
  slice_max(n, n=10)
top10_sentiment.M
```

    ## # A tibble: 21 x 3
    ## # Groups:   sentiment [2]
    ##    sentiment token      n
    ##    <chr>     <chr>  <int>
    ##  1 neg       해       565
    ##  2 neg       어려운   477
    ##  3 neg       못하고   133
    ##  4 neg       심각한   119
    ##  5 neg       장애인    92
    ##  6 neg       해가      82
    ##  7 neg       잘못된    80
    ##  8 neg       힘든      78
    ##  9 neg       부족한    74
    ## 10 neg       고통을    73
    ## # ... with 11 more rows
…
